Version 1.0/Cyclone III/pci_usb_test/output_files/stp1.vcd
$comment
Copyright (C) 1991-2013 Altera Corporation
Your use of Altera Corporation's design tools, logic functions 
and other software and tools, and its AMPP partner logic 
functions, and any output files from any of the foregoing 
(including device programming or simulation files), and any 
associated documentation or information are expressly subject 
to the terms and conditions of the Altera Program License 
Subscription Agreement, Altera MegaCore Function License 
Agreement, or other applicable license agreement, including, 
without limitation, that your use is for the sole purpose of 
programming logic devices manufactured by Altera and sold by 
Altera or its authorized distributors.  Please refer to the 
applicable agreement for further details.
$end

$date 
  10/01/2017 05:28:04 
$end
$version 
 QUARTUS_VCD_EXPORT 1.0 
$end
$timescale
  1 ps
$end
$scope module inst4 $end
$var reg 1 ! \state.CONFIGURATION_READ  $end
$var reg 1 " \state.CONFIGURATION_WRITE  $end
$var reg 1 # \state.IDLE  $end
$var reg 1 $ \state.READ_IO  $end
$var reg 1 % \state.RESET  $end
$var reg 1 & \state.WRITE_IO  $end
$upscope $end
$scope module inst3 $end
$var reg 1 ' c1 $end
$upscope $end
$var reg 1 ( clk $end
$var reg 1 ) irdy $end
$var reg 32 * ad[31:0] $end
$var reg 4 + cbe[3:0] $end
$var reg 1 , trdy $end
$var reg 1 - devsel $end
$var reg 1 . frame $end
$var reg 1 / idsel $end
$var reg 1 0 reset $end
$var reg 1 1 par $end
$var reg 1 2 stop $end
$enddefinitions $end
#0
$dumpvars
X!
X"
X#
X$
X%
X&
0'
X(
X)
bX *
bX +
X,
X-
X.
X/
X0
X1
X2
$end
#3787
$comment Sample -512 (Start) $end
0!
0"
1#
0$
0%
0&
1(
1)
b1001101011110011000000010000010 *
b0 +
1,
1-
1.
1/
10
01
12
#3788
1'
#7575
0'
#11362
0(
#11363
1'
#15150
0'
#18938
1'
#22725
0'
#26512
1(
#26513
1'
#30300
0'
#34088
1'
#37875
0'
#41662
0(
#41663
1'
#45450
0'
#49238
1'
#53025
0'
#56812
1(
#56813
1'
#60600
0'
#64388
1'
#68175
0'
#71962
0(
#71963
1'
#75750
0'
#79538
1'
#83325
0'
#87112
1(
#87113
1'
#90900
0'
#94688
1'
#98475
0'
#102262
0(
#102263
1'
#106050
0'
#109838
1'
#113625
0'
#117412
1(
#117413
1'
#121200
0'
#124988
1'
#128775
0'
#132562
0(
#132563
1'
#136350
0'
#140138
1'
#143925
0'
#147712
1(
#147713
1'
#151500
0'
#155288
1'
#159075
0'
#162862
0(
#162863
1'
#166650
0'
#170438
1'
#174225
0'
#178012
1(
#178013
1'
#181800
0'
#185587
0(
#185588
1'
#189375
0'
#193163
1'
#196950
0'
#200737
1(
#200738
1'
#204525
0'
#208313
1'
#212100
0'
#215887
0(
#215888
1'
#219675
0'
#223463
1'
#227250
0'
#231037
1(
#231038
1'
#234825
0'
#238613
1'
#242400
0'
#246187
0(
#246188
1'
#249975
0'
#253763
1'
#257550
0'
#261337
1(
#261338
1'
#265125
0'
#268913
1'
#272700
0'
#276487
0(
#276488
1'
#280275
0'
#284063
1'
#287850
0'
#291637
1(
#291638
1'
#295425
0'
#299213
1'
#303000
0'
#306787
0(
#306788
1'
#310575
0'
#314363
1'
#318150
0'
#321937
1(
#321938
1'
#325725
0'
#329513
1'
#333300
0'
#337087
0(
#337088
1'
#340875
0'
#344663
1'
#348450
0'
#352237
1(
#352238
1'
#356025
0'
#359813
1'
#363600
0'
#367387
0(
#367388
1'
#371175
0'
#374963
1'
#378750
0'
#382537
1(
#382538
1'
#386325
0'
#390113
1'
#393900
0'
#397687
0(
#397688
1'
#401475
0'
#405263
1'
#409050
0'
#412837
1(
#412838
1'
#416625
0'
#420413
1'
#424200
0'
#427987
0(
#427988
1'
#431775
0'
#435563
1'
#439350
0'
#443137
1(
#443138
1'
#446925
0'
#450713
1'
#454500
0'
#458287
0(
#458288
1'
#462075
0'
#465863
1'
#469650
0'
#473437
1(
#473438
1'
#477225
0'
#481013
1'
#484800
0'
#488587
0(
#488588
1'
#492375
0'
#496163
1'
#499950
0'
#503737
1(
#503738
1'
#507525
0'
#511313
1'
#515100
0'
#518887
0(
#518888
1'
#522675
0'
#526463
1'
#530250
0'
#534037
1(
#534038
1'
#537825
0'
#541613
1'
#545400
0'
#549187
0(
#549188
1'
#552975
0'
#556763
1'
#560550
0'
#564337
1(
#564338
1'
#568125
0'
#571913
1'
#575700
0'
#579487
0(
#579488
1'
#583275
0'
#587063
1'
#590850
0'
#594637
1(
#594638
1'
#598425
0'
#602213
1'
#606000
0'
#609787
0(
#609788
1'
#613575
0'
#617363
1'
#621150
0'
#624937
1(
#624938
1'
#628725
0'
#632513
1'
#636300
0'
#640087
0(
#640088
1'
#643875
0'
#647663
1'
#651450
0'
#655237
1(
#655238
1'
#659025
0'
#662813
1'
#666600
0'
#670387
0(
#670388
1'
#674175
0'
#677963
1'
#681750
0'
#685537
1(
#685538
1'
#689325
0'
#693112
0(
#693113
1'
#696900
0'
#700688
1'
#704475
0'
#708262
1(
#708263
1'
#712050
0'
#715838
1'
#719625
0'
#723412
0(
#723413
1'
#727200
0'
#730988
1'
#734775
0'
#738562
1(
#738563
1'
#742350
0'
#746138
1'
#749925
0'
#753712
0(
#753713
1'
#757500
0'
#761288
1'
#765075
0'
#768862
1(
#768863
1'
#772650
0'
#776438
1'
#780225
0'
#784012
0(
#784013
1'
#787800
0'
#791588
1'
#795375
0'
#799162
1(
#799163
1'
#802950
0'
#806738
1'
#810525
0'
#814312
0(
#814313
1'
#818100
0'
#821888
1'
#825675
0'
#829462
1(
#829463
1'
#833250
0'
#837038
1'
#840825
0'
#844612
0(
#844613
1'
#848400
0'
#852188
1'
#855975
0'
#859762
1(
#859763
1'
#863550
0'
#867338
1'
#871125
0'
#874912
0(
#874913
1'
#878700
0'
#882488
1'
#886275
0'
#890062
1(
#890063
1'
#893850
0'
#897638
1'
#901425
0'
#905212
0(
#905213
1'
#909000
0'
#912788
1'
#916575
0'
#920362
1(
#920363
1'
#924150
0'
#927938
1'
#931725
0'
#935512
0(
#935513
1'
#939300
0'
#943088
1'
#946875
0'
#950662
1(
#950663
1'
#954450
0'
#958238
1'
#962025
0'
#965812
0(
#965813
1'
#969600
0'
#973388
1'
#977175
0'
#980962
1(
#980963
1'
#984750
0'
#988538
1'
#992325
0'
#996112
0(
#996113
1'
#999900
0'
#1003688
1'
#1007475
0'
#1011262
1(
#1011263
1'
#1015050
0'
#1018838
1'
#1022625
0'
#1026412
0(
#1026413
1'
#1030200
0'
#1033988
1'
#1037775
0'
#1041562
1(
#1041563
1'
#1045350
0'
#1049138
1'
#1052925
0'
#1056712
0(
#1056713
1'
#1060500
0'
#1064288
1'
#1068075
0'
#1071862
1(
#1071863
1'
#1075650
0'
#1079438
1'
#1083225
0'
#1087012
0(
#1087013
1'
#1090800
0'
#1094588
1'
#1098375
0'
#1102162
1(
#1102163
1'
#1105950
0'
#1109738
1'
#1113525
0'
#1117312
0(
#1117313
1'
#1121100
0'
#1124888
1'
#1128675
0'
#1132462
1(
#1132463
1'
#1136250
0'
#1140038
1'
#1143825
0'
#1147612
0(
#1147613
1'
#1151400
0'
#1155188
1'
#1158975
0'
#1162762
1(
#1162763
1'
#1166550
0'
#1170338
1'
#1174125
0'
#1177912
0(
#1177913
1'
#1181700
0'
#1185488
1'
#1189275
0'
#1193062
1(
#1193063
1'
#1196850
0'
#1200637
0(
#1200638
1'
#1204425
0'
#1208213
1'
#1212000
0'
#1215788
1'
#1219575
0'
#1223362
1(
#1223363
1'
#1227150
0'
#1230937
0(
#1230938
1'
#1234725
0'
#1238513
1'
#1242300
0'
#1246087
1(
#1246088
1'
#1249875
0'
#1253663
1'
#1257450
0'
#1261237
0(
#1261238
1'
#1265025
0'
#1268813
1'
#1272600
0'
#1276387
1(
#1276388
1'
#1280175
0'
#1283963
1'
#1287750
0'
#1291537
0(
#1291538
1'
#1295325
0'
#1299113
1'
#1302900
0'
#1306687
1(
#1306688
1'
#1310475
0'
#1314263
1'
#1318050
0'
#1321837
0(
#1321838
1'
#1325625
0'
#1329413
1'
#1333200
0'
#1336987
1(
#1336988
1'
#1340775
0'
#1344563
1'
#1348350
0'
#1352137
0(
#1352138
1'
#1355925
0'
#1359713
1'
#1363500
0'
#1367287
1(
#1367288
1'
#1371075
0'
#1374863
1'
#1378650
0'
#1382437
0(
#1382438
1'
#1386225
0'
#1390013
1'
#1393800
0'
#1397587
1(
#1397588
1'
#1401375
0'
#1405163
1'
#1408950
0'
#1412737
0(
#1412738
1'
#1416525
0'
#1420313
1'
#1424100
0'
#1427887
1(
#1427888
1'
#1431675
0'
#1435463
1'
#1439250
0'
#1443037
0(
#1443038
1'
#1446825
0'
#1450613
1'
#1454400
0'
#1458187
1(
#1458188
1'
#1461975
0'
#1465763
1'
#1469550
0'
#1473337
0(
#1473338
1'
#1477125
0'
#1480913
1'
#1484700
0'
#1488487
1(
#1488488
1'
#1492275
0'
#1496063
1'
#1499850
0'
#1503637
0(
#1503638
1'
#1507425
0'
#1511213
1'
#1515000
0'
#1518787
1(
#1518788
1'
#1522575
0'
#1526363
1'
#1530150
0'
#1533937
0(
#1533938
1'
#1537725
0'
#1541513
1'
#1545300
0'
#1549087
1(
#1549088
1'
#1552875
0'
#1556663
1'
#1560450
0'
#1564237
0(
#1564238
1'
#1568025
0'
#1571813
1'
#1575600
0'
#1579387
1(
#1579388
1'
#1583175
0'
#1586963
1'
#1590750
0'
#1594537
0(
#1594538
1'
#1598325
0'
#1602113
1'
#1605900
0'
#1609687
1(
#1609688
1'
#1613475
0'
#1617263
1'
#1621050
0'
#1624837
0(
#1624838
1'
#1628625
0'
#1632413
1'
#1636200
0'
#1639987
1(
b1100000000000000000001100 *
b1010 +
#1639988
1'
#1643775
0'
#1647562
b100000000000000000001100 *
0.
0/
#1647563
1'
#1651350
0'
#1655137
0(
#1655138
1'
#1658925
0'
#1662713
1'
#1666500
0'
#1670287
1(
0)
b111 +
1.
#1670288
1'
#1674075
0'
#1677863
1'
#1681650
0'
#1685437
0(
#1685438
1'
#1689225
0'
#1693013
1'
#1696800
0'
#1700587
1(
b100000000100000000011100 *
0-
#1700588
1'
#1704375
0'
#1708162
b100000000100000000010000 *
#1708163
1'
#1711950
0'
#1715737
0(
#1715738
1'
#1719525
0'
#1723313
1'
#1727100
0'
#1730887
1(
0,
#1730888
1'
#1734675
0'
#1738462
0(
#1738463
1'
#1742250
0'
#1746038
1'
#1749825
0'
#1753612
1(
#1753613
1'
#1757400
0'
#1761187
1)
1,
1-
#1761188
1'
#1764975
0'
#1768762
0(
#1768763
1'
#1772550
0'
#1776338
1'
#1780125
0'
#1783912
1(
#1783913
1'
#1787700
0'
#1791487
b1001101011110011000000010000010 *
b0 +
1/
#1791488
1'
#1795275
0'
#1799062
0(
#1799063
1'
#1802850
0'
#1806638
1'
#1810425
0'
#1814212
1(
#1814213
1'
#1818000
0'
#1821788
1'
#1825575
0'
#1829362
0(
#1829363
1'
#1833150
0'
#1836938
1'
#1840725
0'
#1844512
1(
#1844513
1'
#1848300
0'
#1852088
1'
#1855875
0'
#1859662
0(
#1859663
1'
#1863450
0'
#1867238
1'
#1871025
0'
#1874812
1(
#1874813
1'
#1878600
0'
#1882388
1'
#1886175
0'
#1889962
0(
#1889963
1'
#1893750
0'
#1897538
1'
#1901325
0'
#1905112
1(
#1905113
1'
#1908900
0'
#1912688
1'
#1916475
0'
#1920262
0(
#1920263
1'
#1924050
0'
#1927838
1'
#1931625
0'
#1935412
1(
#1935413
1'
#1939200
0'
#1942988
1'
#1946775
0'
#1950562
0(
#1950563
1'
#1954350
0'
#1958138
1'
#1961925
0'
#1965712
1(
#1965713
1'
#1969500
0'
#1973288
1'
#1977075
0'
#1980862
0(
#1980863
1'
#1984650
0'
#1988438
1'
#1992225
0'
#1996012
1(
#1996013
1'
#1999800
0'
#2003588
1'
#2007375
0'
#2011162
0(
#2011163
1'
#2014950
0'
#2018738
1'
#2022525
0'
#2026312
1(
#2026313
1'
#2030100
0'
#2033888
1'
#2037675
0'
#2041462
0(
#2041463
1'
#2045250
0'
#2049038
1'
#2052825
0'
#2056612
1(
#2056613
1'
#2060400
0'
#2064188
1'
#2067975
0'
#2071762
0(
#2071763
1'
#2075550
0'
#2079338
1'
#2083125
0'
#2086912
1(
#2086913
1'
#2090700
0'
#2094488
1'
#2098275
0'
#2102062
0(
#2102063
1'
#2105850
0'
#2109638
1'
#2113425
0'
#2117212
1(
#2117213
1'
#2121000
0'
#2124788
1'
#2128575
0'
#2132362
0(
#2132363
1'
#2136150
0'
#2139938
1'
#2143725
0'
#2147512
1(
#2147513
1'
#2151300
0'
#2155088
1'
#2158875
0'
#2162662
0(
#2162663
1'
#2166450
0'
#2170238
1'
#2174025
0'
#2177812
1(
#2177813
1'
#2181600
0'
#2185388
1'
#2189175
0'
#2192962
0(
#2192963
1'
#2196750
0'
#2200538
1'
#2204325
0'
#2208112
1(
#2208113
1'
#2211900
0'
#2215688
1'
#2219475
0'
#2223262
0(
#2223263
1'
#2227050
0'
#2230838
1'
#2234625
0'
#2238412
1(
#2238413
1'
#2242200
0'
#2245987
0(
#2245988
1'
#2249775
0'
#2253563
1'
#2257350
0'
#2261137
1(
#2261138
1'
#2264925
0'
#2268713
1'
#2272500
0'
#2276287
0(
#2276288
1'
#2280075
0'
#2283863
1'
#2287650
0'
#2291437
1(
#2291438
1'
#2295225
0'
#2299013
1'
#2302800
0'
#2306587
0(
#2306588
1'
#2310375
0'
#2314163
1'
#2317950
0'
#2321737
1(
#2321738
1'
#2325525
0'
#2329313
1'
#2333100
0'
#2336887
0(
#2336888
1'
#2340675
0'
#2344463
1'
#2348250
0'
#2352037
1(
#2352038
1'
#2355825
0'
#2359613
1'
#2363400
0'
#2367187
0(
#2367188
1'
#2370975
0'
#2374763
1'
#2378550
0'
#2382337
1(
#2382338
1'
#2386125
0'
#2389913
1'
#2393700
0'
#2397487
0(
#2397488
1'
#2401275
0'
#2405063
1'
#2408850
0'
#2412637
1(
#2412638
1'
#2416425
0'
#2420213
1'
#2424000
0'
#2427787
0(
#2427788
1'
#2431575
0'
#2435363
1'
#2439150
0'
#2442937
1(
#2442938
1'
#2446725
0'
#2450513
1'
#2454300
0'
#2458087
0(
#2458088
1'
#2461875
0'
#2465663
1'
#2469450
0'
#2473237
1(
#2473238
1'
#2477025
0'
#2480813
1'
#2484600
0'
#2488387
0(
#2488388
1'
#2492175
0'
#2495963
1'
#2499750
0'
#2503537
1(
#2503538
1'
#2507325
0'
#2511113
1'
#2514900
0'
#2518687
0(
#2518688
1'
#2522475
0'
#2526263
1'
#2530050
0'
#2533837
1(
#2533838
1'
#2537625
0'
#2541413
1'
#2545200
0'
#2548987
0(
#2548988
1'
#2552775
0'
#2556563
1'
#2560350
0'
#2564137
1(
#2564138
1'
#2567925
0'
#2571713
1'
#2575500
0'
#2579287
0(
#2579288
1'
#2583075
0'
#2586863
1'
#2590650
0'
#2594437
1(
#2594438
1'
#2598225
0'
#2602013
1'
#2605800
0'
#2609587
0(
#2609588
1'
#2613375
0'
#2617163
1'
#2620950
0'
#2624737
1(
#2624738
1'
#2628525
0'
#2632313
1'
#2636100
0'
#2639887
0(
#2639888
1'
#2643675
0'
#2647463
1'
#2651250
0'
#2655037
1(
#2655038
1'
#2658825
0'
#2662613
1'
#2666400
0'
#2670187
0(
#2670188
1'
#2673975
0'
#2677763
1'
#2681550
0'
#2685337
1(
#2685338
1'
#2689125
0'
#2692913
1'
#2696700
0'
#2700487
0(
#2700488
1'
#2704275
0'
#2708063
1'
#2711850
0'
#2715637
1(
#2715638
1'
#2719425
0'
#2723213
1'
#2727000
0'
#2730787
0(
#2730788
1'
#2734575
0'
#2738363
1'
#2742150
0'
#2745937
1(
#2745938
1'
#2749725
0'
#2753512
0(
#2753513
1'
#2757300
0'
#2761088
1'
#2764875
0'
#2768662
1(
#2768663
1'
#2772450
0'
#2776238
1'
#2780025
0'
#2783812
0(
#2783813
1'
#2787600
0'
#2791388
1'
#2795175
0'
#2798962
1(
#2798963
1'
#2802750
0'
#2806538
1'
#2810325
0'
#2814112
0(
#2814113
1'
#2817900
0'
#2821688
1'
#2825475
0'
#2829262
1(
#2829263
1'
#2833050
0'
#2836838
1'
#2840625
0'
#2844412
0(
#2844413
1'
#2848200
0'
#2851988
1'
#2855775
0'
#2859562
1(
#2859563
1'
#2863350
0'
#2867138
1'
#2870925
0'
#2874712
0(
#2874713
1'
#2878500
0'
#2882288
1'
#2886075
0'
#2889862
1(
#2889863
1'
#2893650
0'
#2897438
1'
#2901225
0'
#2905012
0(
#2905013
1'
#2908800
0'
#2912588
1'
#2916375
0'
#2920162
1(
#2920163
1'
#2923950
0'
#2927738
1'
#2931525
0'
#2935312
0(
#2935313
1'
#2939100
0'
#2942888
1'
#2946675
0'
#2950462
1(
#2950463
1'
#2954250
0'
#2958038
1'
#2961825
0'
#2965612
0(
#2965613
1'
#2969400
0'
#2973188
1'
#2976975
0'
#2980762
1(
#2980763
1'
#2984550
0'
#2988338
1'
#2992125
0'
#2995912
0(
#2995913
1'
#2999700
0'
#3003488
1'
#3007275
0'
#3011062
1(
#3011063
1'
#3014850
0'
#3018638
1'
#3022425
0'
#3026212
0(
#3026213
1'
#3030000
0'
#3033788
1'
#3037575
0'
#3041362
1(
#3041363
1'
#3045150
0'
#3048938
1'
#3052725
0'
#3056512
0(
#3056513
1'
#3060300
0'
#3064088
1'
#3067875
0'
#3071662
1(
#3071663
1'
#3075450
0'
#3079238
1'
#3083025
0'
#3086812
0(
#3086813
1'
#3090600
0'
#3094388
1'
#3098175
0'
#3101962
1(
#3101963
1'
#3105750
0'
#3109538
1'
#3113325
0'
#3117112
0(
#3117113
1'
#3120900
0'
#3124688
1'
#3128475
0'
#3132262
1(
#3132263
1'
#3136050
0'
#3139838
1'
#3143625
0'
#3147412
0(
#3147413
1'
#3151200
0'
#3154988
1'
#3158775
0'
#3162562
1(
#3162563
1'
#3166350
0'
#3170138
1'
#3173925
0'
#3177712
0(
#3177713
1'
#3181500
0'
#3185288
1'
#3189075
0'
#3192862
1(
#3192863
1'
#3196650
0'
#3200438
1'
#3204225
0'
#3208012
0(
#3208013
1'
#3211800
0'
#3215588
1'
#3219375
0'
#3223162
1(
#3223163
1'
#3226950
0'
#3230738
1'
#3234525
0'
#3238312
0(
#3238313
1'
#3242100
0'
#3245888
1'
#3249675
0'
#3253462
1(
#3253463
1'
#3257250
0'
#3261037
0(
#3261038
1'
#3264825
0'
#3268613
1'
#3272400
0'
#3276187
1(
#3276188
1'
#3279975
0'
#3283763
1'
#3287550
0'
#3291337
0(
#3291338
1'
#3295125
0'
#3298913
1'
#3302700
0'
#3306487
1(
#3306488
1'
#3310275
0'
#3314063
1'
#3317850
0'
#3321637
0(
#3321638
1'
#3325425
0'
#3329213
1'
#3333000
0'
#3336787
1(
#3336788
1'
#3340575
0'
#3344363
1'
#3348150
0'
#3351937
0(
#3351938
1'
#3355725
0'
#3359513
1'
#3363300
0'
#3367087
1(
#3367088
1'
#3370875
0'
#3374663
1'
#3378450
0'
#3382237
0(
#3382238
1'
#3386025
0'
#3389813
1'
#3393600
0'
#3397387
1(
#3397388
1'
#3401175
0'
#3404963
1'
#3408750
0'
#3412537
0(
#3412538
1'
#3416325
0'
#3420113
1'
#3423900
0'
#3427687
1(
#3427688
1'
#3431475
0'
#3435263
1'
#3439050
0'
#3442837
0(
#3442838
1'
#3446625
0'
#3450413
1'
#3454200
0'
#3457987
1(
#3457988
1'
#3461775
0'
#3465563
1'
#3469350
0'
#3473137
0(
#3473138
1'
#3476925
0'
#3480713
1'
#3484500
0'
#3488287
1(
#3488288
1'
#3492075
0'
#3495863
1'
#3499650
0'
#3503437
0(
#3503438
1'
#3507225
0'
#3511013
1'
#3514800
0'
#3518587
1(
#3518588
1'
#3522375
0'
#3526163
1'
#3529950
0'
#3533737
0(
#3533738
1'
#3537525
0'
#3541313
1'
#3545100
0'
#3548887
1(
#3548888
1'
#3552675
0'
#3556463
1'
#3560250
0'
#3564037
0(
#3564038
1'
#3567825
0'
#3571613
1'
#3575400
0'
#3579187
1(
#3579188
1'
#3582975
0'
#3586763
1'
#3590550
0'
#3594337
0(
#3594338
1'
#3598125
0'
#3601913
1'
#3605700
0'
#3609487
1(
#3609488
1'
#3613275
0'
#3617063
1'
#3620850
0'
#3624637
0(
#3624638
1'
#3628425
0'
#3632213
1'
#3636000
0'
#3639787
1(
#3639788
1'
#3643575
0'
#3647363
1'
#3651150
0'
#3654937
0(
#3654938
1'
#3658725
0'
#3662513
1'
#3666300
0'
#3670087
1(
#3670088
1'
#3673875
0'
#3677663
1'
#3681450
0'
#3685237
0(
#3685238
1'
#3689025
0'
#3692813
1'
#3696600
0'
#3700387
1(
#3700388
1'
#3704175
0'
#3707963
1'
#3711750
0'
#3715537
0(
#3715538
1'
#3719325
0'
#3723113
1'
#3726900
0'
#3730687
1(
#3730688
1'
#3734475
0'
#3738263
1'
#3742050
0'
#3745837
0(
#3745838
1'
#3749625
0'
#3753413
1'
#3757200
0'
#3760987
1(
#3760988
1'
#3764775
0'
#3768562
0(
#3768563
1'
#3772350
0'
#3776138
1'
#3779925
0'
#3783713
1'
#3787500
0'
#3791287
1(
#3791288
1'
#3795075
0'
#3798862
0(
#3798863
1'
#3802650
0'
#3806438
1'
#3810225
0'
#3814012
1(
#3814013
1'
#3817800
0'
#3821588
1'
#3825375
0'
#3829162
0(
#3829163
1'
#3832950
0'
#3836738
1'
#3840525
0'
#3844312
1(
#3844313
1'
#3848100
0'
#3851888
1'
#3855675
0'
#3859462
0(
#3859463
1'
#3863250
0'
#3867038
1'
#3870825
0'
#3874612
1(
#3874613
1'
#3878400
0'
#3882187
$comment Sample 0 (Trigger) $end
b100000000000000000010000 *
b1010 +
0.
0/
#3882188
1'
#3885975
0'
#3889762
0(
#3889763
1'
#3893550
0'
#3897338
1'
#3901125
0'
#3904912
1(
#3904913
1'
#3908700
0'
#3912487
0)
b1110 +
1.
#3912488
1'
#3916275
0'
#3920062
0(
#3920063
1'
#3923850
0'
#3927638
1'
#3931425
0'
#3935212
1(
#3935213
1'
#3939000
0'
#3942787
b0 *
0-
#3942788
1'
#3946575
0'
#3950362
0(
#3950363
1'
#3954150
0'
#3957938
1'
#3961725
0'
#3965512
1(
#3965513
1'
#3969300
0'
#3973087
0,
#3973088
1'
#3976875
0'
#3980662
0(
#3980663
1'
#3984450
0'
#3988238
1'
#3992025
0'
#3995812
1(
#3995813
1'
#3999600
0'
#4003387
1)
1,
1-
#4003388
1'
#4007175
0'
#4010962
0(
#4010963
1'
#4014750
0'
#4018538
1'
#4022325
0'
#4026112
1(
#4026113
1'
#4029900
0'
#4033687
b1001101011110011000000010000010 *
b0 +
1/
#4033688
1'
#4037475
0'
#4041262
0(
#4041263
1'
#4045050
0'
#4048838
1'
#4052625
0'
#4056412
1(
#4056413
1'
#4060200
0'
#4063988
1'
#4067775
0'
#4071562
0(
#4071563
1'
#4075350
0'
#4079138
1'
#4082925
0'
#4086712
1(
#4086713
1'
#4090500
0'
#4094288
1'
#4098075
0'
#4101862
0(
#4101863
1'
#4105650
0'
#4109438
1'
#4113225
0'
#4117012
1(
#4117013
1'
#4120800
0'
#4124588
1'
#4128375
0'
#4132162
0(
#4132163
1'
#4135950
0'
#4139738
1'
#4143525
0'
#4147312
1(
#4147313
1'
#4151100
0'
#4154888
1'
#4158675
0'
#4162462
0(
#4162463
1'
#4166250
0'
#4170038
1'
#4173825
0'
#4177612
1(
#4177613
1'
#4181400
0'
#4185188
1'
#4188975
0'
#4192762
0(
#4192763
1'
#4196550
0'
#4200338
1'
#4204125
0'
#4207912
1(
#4207913
1'
#4211700
0'
#4215488
1'
#4219275
0'
#4223062
0(
#4223063
1'
#4226850
0'
#4230638
1'
#4234425
0'
#4238212
1(
#4238213
1'
#4242000
0'
#4245788
1'
#4249575
0'
#4253362
0(
#4253363
1'
#4257150
0'
#4260938
1'
#4264725
0'
#4268512
1(
#4268513
1'
#4272300
0'
#4276088
1'
#4279875
0'
#4283662
0(
#4283663
1'
#4287450
0'
#4291238
1'
#4295025
0'
#4298812
1(
#4298813
1'
#4302600
0'
#4306387
0(
#4306388
1'
#4310175
0'
#4313963
1'
#4317750
0'
#4321537
1(
#4321538
1'
#4325325
0'
#4329113
1'
#4332900
0'
#4336687
0(
#4336688
1'
#4340475
0'
#4344263
1'
#4348050
0'
#4351837
1(
#4351838
1'
#4355625
0'
#4359413
1'
#4363200
0'
#4366987
0(
#4366988
1'
#4370775
0'
#4374563
1'
#4378350
0'
#4382137
1(
#4382138
1'
#4385925
0'
#4389713
1'
#4393500
0'
#4397287
0(
#4397288
1'
#4401075
0'
#4404863
1'
#4408650
0'
#4412437
1(
#4412438
1'
#4416225
0'
#4420013
1'
#4423800
0'
#4427587
0(
#4427588
1'
#4431375
0'
#4435163
1'
#4438950
0'
#4442737
1(
#4442738
1'
#4446525
0'
#4450313
1'
#4454100
0'
#4457887
0(
#4457888
1'
#4461675
0'
#4465463
1'
#4469250
0'
#4473037
1(
#4473038
1'
#4476825
0'
#4480613
1'
#4484400
0'
#4488187
0(
#4488188
1'
#4491975
0'
#4495763
1'
#4499550
0'
#4503337
1(
#4503338
1'
#4507125
0'
#4510913
1'
#4514700
0'
#4518487
0(
#4518488
1'
#4522275
0'
#4526063
1'
#4529850
0'
#4533637
1(
#4533638
1'
#4537425
0'
#4541213
1'
#4545000
0'
#4548787
0(
#4548788
1'
#4552575
0'
#4556363
1'
#4560150
0'
#4563937
1(
#4563938
1'
#4567725
0'
#4571513
1'
#4575300
0'
#4579087
0(
#4579088
1'
#4582875
0'
#4586663
1'
#4590450
0'
#4594237
1(
#4594238
1'
#4598025
0'
#4601813
1'
#4605600
0'
#4609387
0(
#4609388
1'
#4613175
0'
#4616963
1'
#4620750
0'
#4624537
1(
#4624538
1'
#4628325
0'
#4632113
1'
#4635900
0'
#4639687
0(
#4639688
1'
#4643475
0'
#4647263
1'
#4651050
0'
#4654837
1(
#4654838
1'
#4658625
0'
#4662413
1'
#4666200
0'
#4669987
0(
#4669988
1'
#4673775
0'
#4677563
1'
#4681350
0'
#4685137
1(
#4685138
1'
#4688925
0'
#4692713
1'
#4696500
0'
#4700287
0(
#4700288
1'
#4704075
0'
#4707863
1'
#4711650
0'
#4715437
1(
#4715438
1'
#4719225
0'
#4723013
1'
#4726800
0'
#4730587
0(
#4730588
1'
#4734375
0'
#4738163
1'
#4741950
0'
#4745737
1(
#4745738
1'
#4749525
0'
#4753313
1'
#4757100
0'
#4760887
0(
#4760888
1'
#4764675
0'
#4768463
1'
#4772250
0'
#4776037
1(
#4776038
1'
#4779825
0'
#4783613
1'
#4787400
0'
#4791187
0(
#4791188
1'
#4794975
0'
#4798763
1'
#4802550
0'
#4806337
1(
#4806338
1'
#4810125
0'
#4813913
1'
#4817700
0'
#4821487
0(
#4821488
1'
#4825275
0'
#4829063
1'
#4832850
0'
#4836637
1(
#4836638
1'
#4840425
0'
#4844212
0(
#4844213
1'
#4848000
0'
#4851788
1'
#4855575
0'
#4859362
1(
#4859363
1'
#4863150
0'
#4866938
1'
#4870725
0'
#4874512
0(
#4874513
1'
#4878300
0'
#4882088
1'
#4885875
0'
#4889662
1(
#4889663
1'
#4893450
0'
#4897238
1'
#4901025
0'
#4904812
0(
#4904813
1'
#4908600
0'
#4912388
1'
#4916175
0'
#4919962
1(
#4919963
1'
#4923750
0'
#4927538
1'
#4931325
0'
#4935112
0(
#4935113
1'
#4938900
0'
#4942688
1'
#4946475
0'
#4950262
1(
#4950263
1'
#4954050
0'
#4957838
1'
#4961625
0'
#4965412
0(
#4965413
1'
#4969200
0'
#4972988
1'
#4976775
0'
#4980562
1(
#4980563
1'
#4984350
0'
#4988138
1'
#4991925
0'
#4995712
0(
#4995713
1'
#4999500
0'
#5003288
1'
#5007075
0'
#5010862
1(
#5010863
1'
#5014650
0'
#5018438
1'
#5022225
0'
#5026012
0(
#5026013
1'
#5029800
0'
#5033588
1'
#5037375
0'
#5041162
1(
#5041163
1'
#5044950
0'
#5048738
1'
#5052525
0'
#5056312
0(
#5056313
1'
#5060100
0'
#5063888
1'
#5067675
0'
#5071462
1(
#5071463
1'
#5075250
0'
#5079038
1'
#5082825
0'
#5086612
0(
#5086613
1'
#5090400
0'
#5094188
1'
#5097975
0'
#5101762
1(
#5101763
1'
#5105550
0'
#5109338
1'
#5113125
0'
#5116912
0(
#5116913
1'
#5120700
0'
#5124488
1'
#5128275
0'
#5132062
1(
#5132063
1'
#5135850
0'
#5139638
1'
#5143425
0'
#5147212
0(
#5147213
1'
#5151000
0'
#5154788
1'
#5158575
0'
#5162362
1(
#5162363
1'
#5166150
0'
#5169938
1'
#5173725
0'
#5177512
0(
#5177513
1'
#5181300
0'
#5185088
1'
#5188875
0'
#5192662
1(
#5192663
1'
#5196450
0'
#5200238
1'
#5204025
0'
#5207812
0(
#5207813
1'
#5211600
0'
#5215388
1'
#5219175
0'
#5222962
1(
#5222963
1'
#5226750
0'
#5230538
1'
#5234325
0'
#5238112
0(
#5238113
1'
#5241900
0'
#5245688
1'
#5249475
0'
#5253262
1(
#5253263
1'
#5257050
0'
#5260838
1'
#5264625
0'
#5268412
0(
#5268413
1'
#5272200
0'
#5275988
1'
#5279775
0'
#5283562
1(
#5283563
1'
#5287350
0'
#5291138
1'
#5294925
0'
#5298712
0(
#5298713
1'
#5302500
0'
#5306288
1'
#5310075
0'
#5313862
1(
#5313863
1'
#5317650
0'
#5321438
1'
#5325225
0'
#5329012
0(
#5329013
1'
#5332800
0'
#5336588
1'
#5340375
0'
#5344162
1(
#5344163
1'
#5347950
0'
#5351738
1'
#5355525
0'
#5359312
0(
#5359313
1'
#5363100
0'
#5366888
1'
#5370675
0'
